-75.2962,42.0818,-93.19
-73.403,18.7315,-97.5941
-69.3543,-5.02653,-94.7016
-63.0835,-26.2012,-94.3116
-54.417,-45.5768,-91.4896
-44.3057,-58.2358,-67.9244
-30.5249,-67.9076,-51.3743
-16.3004,-74.0836,-38.2904
-1.3418,-74.4912,-31.6278
13.1873,-70.4593,-30.1397
27.386,-61.4917,-40.2067
42.7733,-53.0576,-51.4333
56.9127,-41.2455,-66.5201
63.5127,-22.9935,-70.6017
68.4039,-6.06622,-80.236
71.011,14.1198,-69.5977
77.7785,31.4473,-90.1455
-64.689,43.5477,-57.2121
-54.6381,53.6415,-37.5453
-40.4017,57.349,-23.8116
-24.7793,55.1049,-17.312
-10.0128,47.0868,-15.6869
10.3658,46.1518,-18.3354
22.7937,53.2675,-16.3857
38.0025,56.909,-21.1616
59.5331,52.2258,-47.5938
77.4237,36.9208,-79.6969
1.10697,33.6524,-15.8907
1.0351,22.6995,-9.99587
1.03973,12.1145,-3.13102
1.38729,1.37199,3.75183
-12.5483,-11.7912,-17.6939
-6.18276,-12.6195,-12.7119
1.52288,-13.6062,-11.6075
8.69631,-12.657,-14.6277
15.8118,-11.4911,-20.4318
-50.4889,33.1734,-41.7914
-43.8738,40.3367,-29.4272
-32.7101,40.0595,-25.2566
-21.6172,29.4855,-29.3516
-32.2937,27.3597,-28.6295
-43.6735,27.0138,-34.2196
20.5619,30.4684,-28.007
27.2779,41.2263,-25.221
38.411,42.0039,-26.0244
50.7322,34.2836,-41.534
42.8522,29.4922,-32.0121
30.8813,28.3187,-28.3156
-22.1873,-38.7927,-28.496
-12.2603,-31.5118,-17.155
-4.74082,-27.438,-12.4088
0.328416,-29.6049,-12.0312
5.72383,-27.6008,-12.8355
13.4603,-31.7524,-18.2028
20.6442,-36.4674,-25.3431
13.3304,-39.4297,-20.4636
6.66108,-43.2085,-17.3861
0.817454,-43.9575,-16.3955
-4.49239,-43.9019,-16.7286
-12.1472,-42.7128,-19.6374
-18.4424,-36.9498,-24.6745
-4.0436,-34.3477,-16.7193
1.16489,-35.7893,-16.7372
6.36004,-34.2258,-16.4229
15.7669,-35.3006,-21.7783
6.3385,-35.033,-17.0388
0.806041,-36.644,-16.9998
-4.29547,-36.2225,-17.527
