-2.41174,1.2666,0.252781
-2.43535,0.650821,0.33229
-2.36236,-0.00943632,0.442506
-2.23946,-0.588713,0.554147
-2.03619,-1.1306,0.681006
-1.66503,-1.58356,0.838146
-1.23024,-1.9246,0.995901
-0.795812,-2.15505,1.13821
-0.365861,-2.19987,1.2536
0.0331839,-2.10053,1.34113
0.369335,-1.81482,1.38681
0.729175,-1.5387,1.43984
1.04169,-1.15301,1.46564
1.23073,-0.639817,1.44238
1.34105,-0.137229,1.4006
1.51126,0.363282,1.37433
1.61084,0.925428,1.32155
-1.92869,1.14182,0.392763
-1.5333,1.32531,0.46768
-1.07426,1.36076,0.579314
-0.631595,1.26655,0.704795
-0.250743,1.03746,0.83331
0.268733,1.01887,0.967795
0.621514,1.20053,1.03215
1.00265,1.31729,1.11271
1.4118,1.30356,1.21851
1.6713,1.02735,1.32275
0.0126161,0.670182,0.95118
0.0207318,0.345734,0.998292
0.0370463,0.0269072,1.04671
0.062155,-0.29637,1.09797
-0.451803,-0.554367,1.00329
-0.258222,-0.600918,1.05891
-0.0513626,-0.634653,1.11612
0.122513,-0.597024,1.15504
0.279774,-0.540954,1.18719
-1.49064,0.786654,0.553307
-1.23256,0.924173,0.599742
-0.916103,0.895067,0.684137
-0.669196,0.623124,0.784591
-0.950538,0.564714,0.721265
-1.28191,0.583317,0.634541
0.450219,0.63328,1.06742
0.664991,0.911675,1.0833
0.955076,0.933665,1.1539
1.17654,0.790434,1.23002
1.01234,0.619199,1.2121
0.715534,0.57362,1.14307
-0.822217,-1.23777,1.00413
-0.482461,-1.09327,1.07034
-0.249581,-1.00571,1.11731
-0.118618,-1.06762,1.15916
0.0230515,-1.01083,1.18725
0.187969,-1.10152,1.24172
0.327269,-1.1994,1.29068
0.15587,-1.30013,1.26114
-0.0103376,-1.4151,1.23491
-0.160136,-1.43848,1.20012
-0.301596,-1.43414,1.16359
-0.516769,-1.38679,1.10238
-0.698486,-1.20578,1.03111
-0.269753,-1.17442,1.13562
-0.135818,-1.21485,1.17524
0.0059054,-1.17503,1.2057
0.221277,-1.1825,1.26142
0.000211865,-1.19421,1.20691
-0.148514,-1.23682,1.17507
-0.284812,-1.22171,1.13836