1,2588
2,2507
3,2077
4,1978
5,872
6,2477
7,1034
8,2192
9,2396
10,2262
11,1103
12,2199
13,879
14,845
15,851
16,759
17,2590
18,222
19,1126
20,1641
21,240
22,2182
23,589
24,673
25,1699
26,2554
27,2824
28,2774
29,2497
30,271
31,1592
32,1507
33,2793
34,1534
35,2605
36,1566
37,2635
38,3032
39,169
40,1595
41,1387
42,3159
43,613
44,623
45,625
46,607
47,3024
48,810
49,88
50,314
51,1529
52,3405
53,3188
54,2830
55,525
56,2936
57,1235
58,2867
59,2706
60,2931
61,2957
62,3333
63,3390
64,1468
65,503
66,3082
67,400
68,3081
