1,1959
2,1815
3,346
4,1740
5,1843
6,2244
7,1034
8,2192
9,1097
10,1911
11,1771
12,1824
13,766
14,973
15,1792
16,1181
17,925
18,1290
19,1126
20,1165
21,2085
22,156
23,1017
24,673
25,2557
26,661
27,2824
28,437
29,378
30,2573
31,3420
32,3338
33,2792
34,3040
35,2795
36,3051
37,2250
38,1337
39,1361
40,2658
41,3022
42,395
43,2585
44,2597
45,2925
46,609
47,1446
48,810
49,61
50,403
51,3333
52,422
53,1721
54,3166
55,498
56,2935
57,3010
58,442
59,3233
60,3008
61,3139
62,1489
63,400
64,3117
65,3141
66,3117
67,3374
68,1489
