1,854
2,1746
3,1773
4,336
5,334
6,28
7,14
8,3
9,6
10,2263
11,457
12,2011
13,1922
14,804
15,849
16,1915
17,772
18,1830
19,2473
20,232
21,2085
22,1122
23,589
24,2090
25,1167
26,2469
27,655
28,437
29,378
30,271
31,386
32,2600
33,85
34,1457
35,2907
36,1185
37,1224
38,3032
39,2980
40,180
41,172
42,1288
43,613
44,2597
45,2925
46,609
47,1446
48,3025
49,2957
50,2992
51,3280
52,3403
53,3055
54,1398
55,1709
56,2936
57,2708
58,255
59,2962
60,2931
61,409
62,3209
63,422
64,3211
65,3308
66,3118
67,441
68,401
