dlib
data/mean_ibug_lfpw_68.txt
data/rcr_training_68.cfg
data/rcr_eval.cfg
results/run9/model_created_68.bin
results/run9/model_errors.txt
results/run9/model_params.txt
5 4 4 1.00000000
5 4 4 0.69999999
5 4 4 0.40000001

