NLSR errors
0.02515063
0.01362958
0.00908483
0.00672544
0.00538046

normalised LM errors
0.09120916
0.04450805
0.02693914
0.01880195
0.01485483


test NLSR errors
0.06715647
0.02236165
0.01686809
0.01543827
0.01521808
0.01506267

test normalised LM errors
0.29737138
0.08799236
0.06384011
0.05587303
0.05364023
0.05295723

total time
14405236
number of training images:
2273->25003 / 2510
number of testing images:
385 / 420
