Train loss,Test loss,Learning rate,Batch percentage
0.6546107530593872,0.4938268471847881,0.3,0.1
0.4619393855333328,0.3995686715299433,0.3,0.1
0.34211078882217405,0.2773102142594077,0.3,0.1
0.28344756960868833,0.28769127889112994,0.3,0.1
0.26238918155431745,0.29071681878783484,0.3,0.1
0.2511197939515114,0.2480102235620672,0.3,0.1
0.24293928295373918,0.22568061676892368,0.3,0.1
0.21840961128473282,0.20497491413896735,0.3,0.1
0.2198581650853157,0.20026328482411124,0.3,0.1
0.215927192568779,0.21892116286537863,0.3,0.1
0.1948057860136032,0.20211548967794937,0.3,0.1
0.18398046046495437,0.19828931580890308,0.3,0.1
0.19940218478441238,0.21376352418552746,0.3,0.1
0.19165962934494019,0.18433442847295242,0.3,0.1
0.1827749192714691,0.169183458794247,0.3,0.1
0.17624429613351822,0.15830585225061936,0.3,0.1
0.17514386177062988,0.17842184819958426,0.3,0.1
0.1775196149945259,0.1720420013774525,0.3,0.1
0.16763447225093842,0.15787156874483282,0.3,0.1
0.1597758039832115,0.1679367937824943,0.3,0.1
0.15869114249944688,0.15889624709432776,0.3,0.1
0.15790414363145827,0.16458475589752197,0.3,0.1
0.1727478474378586,0.1795857928015969,0.3,0.1
0.16055893898010254,0.16607845235954632,0.3,0.1
0.15727278590202332,0.14757237109270963,0.3,0.1
0.15797372162342072,0.14773422411896966,0.3,0.1
0.15200744867324828,0.16485503315925598,0.3,0.1
0.14690923243761062,0.15227508003061468,0.3,0.1
0.1448858141899109,0.1441061103885824,0.3,0.1
0.14058062583208084,0.14426817541772669,0.3,0.1
0.15638861060142517,0.15587020868604834,0.3,0.1
0.14833441823720933,0.1436611143025485,0.3,0.1
0.14125389009714126,0.14851956204934555,0.3,0.1
0.14012759625911714,0.14069906622171402,0.3,0.1
0.1345781907439232,0.1363464133305983,0.3,0.1
0.13586935102939607,0.14401275461370294,0.3,0.1
0.14921604841947556,0.14639014953916724,0.3,0.1
0.13789045214653015,0.13597722351551056,0.3,0.1
0.13283429592847823,0.13147372549230402,0.3,0.1
0.1251495823264122,0.12836496125568042,0.3,0.1
0.13515739887952805,0.12771037220954895,0.3,0.1
0.14107887744903563,0.14362857964905826,0.3,0.1
0.13254958987236024,0.13516240363771265,0.3,0.1
0.12979383394122124,0.1307890604842793,0.3,0.1
0.1282198905944824,0.13338992406021466,0.3,0.1
0.12663721665740013,0.1337581913579594,0.3,0.1
0.1308778092265129,0.15424235571514477,0.3,0.1
0.13416047543287277,0.1286360817876729,0.3,0.1
0.12506013885140418,0.1229952099648389,0.3,0.1
0.12281806170940399,0.11829865249720486,0.3,0.1
0.12457830011844635,0.12307656759565527,0.3,0.1
0.12410372346639634,0.1195133010094816,0.3,0.1
0.12663446590304375,0.12326954237439415,0.3,0.1
0.12392326816916466,0.1285243799740618,0.3,0.1
0.12500909119844436,0.1284554363651709,0.3,0.1
0.12010451182723045,0.12335589121688496,0.3,0.1
0.12096574753522873,0.11317490854046562,0.3,0.1
0.12447854727506638,0.1203473223881288,0.3,0.1
0.1236194059252739,0.12373090129006993,0.3,0.1
0.12013780698180199,0.131631383841688,0.3,0.1
0.11752513274550438,0.11937031082131645,0.3,0.1
0.11649891436100006,0.11389894918961958,0.3,0.1
0.1174168862402439,0.13337592509659854,0.3,0.1
0.12161122858524323,0.12169028344479474,0.3,0.1
0.11541879251599312,0.11545214666561647,0.3,0.1
0.11451140195131301,0.1232545944777402,0.3,0.1
0.11741974577307701,0.1233401440761306,0.3,0.1
0.11834804266691208,0.11807045814665881,0.3,0.1
0.1165900282561779,0.12009289386597546,0.3,0.1
0.1171942912042141,0.1111133952032436,0.3,0.1
0.11737607270479203,0.12737988883798773,0.3,0.1
0.11237471923232079,0.1104411469264464,0.3,0.1
0.11281750947237015,0.11579009010033174,0.3,0.1
0.11272122040390968,0.1097441478209062,0.3,0.1
0.11582524701952934,0.11609699983488429,0.3,0.1
0.1094200648367405,0.12002181194045326,0.3,0.1
0.1140744410455227,0.10986493121493947,0.3,0.1
0.11283180713653565,0.11927970431067726,0.3,0.1
0.11154723241925239,0.11446702751246365,0.3,0.1
0.11138148605823517,0.10345094041390852,0.3,0.1
0.1100130818784237,0.11109975996342572,0.3,0.1
0.11004247069358826,0.11156724393367767,0.3,0.1
0.11583593636751174,0.12095029990781438,0.3,0.1
0.11035870611667634,0.11052003773775967,0.3,0.1
0.10684047788381576,0.10683951391415163,0.3,0.1
0.10859581008553505,0.11176611212166873,0.3,0.1
0.11212020292878151,0.11499515785412355,0.3,0.1
0.10942321345210075,0.10471300645308061,0.3,0.1
0.10838253945112228,0.11015648191625421,0.3,0.1
0.11024337485432625,0.10963996093381535,0.3,0.1
0.10769762247800826,0.11069382998076352,0.3,0.1
0.10907992720603943,0.1062294366684827,0.3,0.1
0.1088350959122181,0.11315574835647237,0.3,0.1
0.10648006275296211,0.10849732025103136,0.3,0.1
0.1079990804195404,0.11920924823392522,0.3,0.1
0.10817088410258294,0.11185780506242406,0.3,0.1
0.10450314134359359,0.10405270823023537,0.3,0.1
0.10546224936842918,0.10786305638876828,0.3,0.1
0.10592077970504761,0.1022364233027805,0.3,0.1
0.10750566124916076,0.11104924773628061,0.3,0.1
