dlib
data/mean_ibug_lfpw_68.txt
data/rcr_training_68.cfg
data/rcr_eval.cfg
results/run7/model_created_68.bin
results/run7/model_errors.txt
results/run7/model_params.txt
4 9 4 1.00000000
4 8 4 0.69999999
4 7 4 0.40000001
4 6 4 0.25000000
4 5 4 0.20000000

